{
  "ruleChain": {
    "additionalInfo": {
      "description": ""
    },
    "name": "wetterdaten_rule_chain",
    "type": "CORE",
    "firstRuleNodeId": null,
    "root": false,
    "debugMode": false,
    "configuration": null,
    "externalId": null
  },
  "metadata": {
    "firstNodeIndex": null,
    "nodes": [
      {
        "additionalInfo": {
          "description": null,
          "layoutX": 641,
          "layoutY": 212
        },
        "type": "org.thingsboard.rule.engine.metadata.TbGetAttributesNode",
        "name": "Latitude/Longitude",
        "debugMode": false,
        "singletonMode": false,
        "configurationVersion": 1,
        "configuration": {
          "tellFailureIfAbsent": true,
          "fetchTo": "METADATA",
          "clientAttributeNames": [],
          "sharedAttributeNames": [],
          "serverAttributeNames": [
            "latitude",
            "longitude",
            "units"
          ],
          "latestTsKeyNames": [],
          "getLatestValueWithTs": false
        },
        "externalId": null
      },
      {
        "additionalInfo": {
          "layoutX": 1255,
          "layoutY": 215
        },
        "type": "org.thingsboard.rule.engine.transform.TbTransformMsgNode",
        "name": "Fetch Data",
        "debugMode": false,
        "singletonMode": false,
        "configurationVersion": 0,
        "configuration": {
          "jsScript": "var newMsg = {\n    \"outsideTemp\": msg.main.temp,\n    \"outsideMaxTemp\": msg.main.temp_max,\n    \"outsideMinTemp\": msg.main.temp_min,\n    \"outsideHumidity\": msg.main.humidity,\n};\n\n\nreturn {msg: newMsg, metadata: metadata, msgType: msgType};"
        },
        "externalId": null
      },
      {
        "additionalInfo": {
          "layoutX": 1258,
          "layoutY": 331
        },
        "type": "org.thingsboard.rule.engine.telemetry.TbMsgTimeseriesNode",
        "name": "Save Timeseries",
        "debugMode": false,
        "singletonMode": false,
        "configurationVersion": 0,
        "configuration": {
          "defaultTTL": 0
        },
        "externalId": null
      },
      {
        "additionalInfo": {
          "description": null,
          "layoutX": 48,
          "layoutY": 215
        },
        "type": "org.thingsboard.rule.engine.debug.TbMsgGeneratorNode",
        "name": "Generate requests",
        "debugMode": true,
        "singletonMode": false,
        "configurationVersion": 0,
        "configuration": {
          "msgCount": 0,
          "periodInSeconds": 4000,
          "scriptLang": "JS",
          "jsScript": "return { msg: {}, metadata: {}, msgType: \"POST_TELEMETRY_REQUEST\" };",
          "tbelScript": null,
          "queueName": null,
          "originatorId": "58b33250-6990-11ee-a22e-47a26c50418b",
          "originatorType": "ASSET"
        },
        "externalId": null
      },
      {
        "additionalInfo": {
          "description": null,
          "layoutX": 372,
          "layoutY": 224
        },
        "type": "org.thingsboard.rule.engine.metadata.TbGetCustomerAttributeNode",
        "name": "Get customer API key",
        "debugMode": false,
        "singletonMode": false,
        "configurationVersion": 1,
        "configuration": {
          "dataMapping": {
            "APPID": "APPID"
          },
          "dataToFetch": "ATTRIBUTES",
          "fetchTo": "METADATA"
        },
        "externalId": null
      },
      {
        "additionalInfo": {
          "description": "",
          "layoutX": 941,
          "layoutY": 287
        },
        "type": "org.thingsboard.rule.engine.rest.TbRestApiCallNode",
        "name": "Perform API Call",
        "debugMode": false,
        "singletonMode": false,
        "configurationVersion": 0,
        "configuration": {
          "restEndpointUrlPattern": "http://api.openweathermap.org/data/2.5/weather?lat=${ss_latitude}&lon=${ss_longitude}&units=${ss_units}&APPID=${APPID}",
          "requestMethod": "GET",
          "useSimpleClientHttpFactory": false,
          "trimDoubleQuotes": false,
          "ignoreRequestBody": false,
          "enableProxy": false,
          "useSystemProxyProperties": false,
          "proxyScheme": null,
          "proxyHost": null,
          "proxyPort": 0,
          "proxyUser": null,
          "proxyPassword": null,
          "readTimeoutMs": 0,
          "maxParallelRequestsCount": 0,
          "headers": {},
          "useRedisQueueForMsgPersistence": false,
          "trimQueue": null,
          "maxQueueSize": null,
          "credentials": {
            "type": "anonymous"
          }
        },
        "externalId": null
      }
    ],
    "connections": [
      {
        "fromIndex": 0,
        "toIndex": 5,
        "type": "Success"
      },
      {
        "fromIndex": 1,
        "toIndex": 2,
        "type": "Success"
      },
      {
        "fromIndex": 3,
        "toIndex": 4,
        "type": "Success"
      },
      {
        "fromIndex": 4,
        "toIndex": 0,
        "type": "Success"
      },
      {
        "fromIndex": 5,
        "toIndex": 1,
        "type": "Success"
      }
    ],
    "ruleChainConnections": null
  }
}
